%YAML 1.1
%TAG !u! tag:unity3d.com,2011:
--- !u!1045 &1
EditorBuildSettings:
  m_ObjectHideFlags: 0
  serializedVersion: 2
  m_Scenes:
  - enabled: 1
    path: Assets/CircleMenuBase02_Dependenceis/Scene/CircleMenu_Base.unity
    guid: bf9f8b65b19fe454abe4ebf582250ab5
  - enabled: 1
    path: Assets/CircleMenuBase02_Dependenceis/Scene/LevelSelector.unity
    guid: decc56164ac2b45ec8064d6eb1380da9
  - enabled: 1
    path: Assets/test2.unity
    guid: 5e5ebcc55bad448e4a5739aa37f83abe
